[
	{
		"name": "Badge",
		"parent": "Indicators",
		"githubUrl": "indicators/badge",
		"description": null,
		"react": {
			"exists": false,
			"status": -1,
			"globalUse": false,
			"support": [
				{
					"region": "SV",
					"status": -1
				}
			]
		},
		"angular": {
			"exists": false,
			"status": -1,
			"globalUse": false,
			"support": [
				{
					"region": "NL",
					"status": -1
				}
			]
		},
		"html": {
			"exists": true,
			"status": 0,
			"globalUse": true,
			"support": []
		},
		"figmaUrl": false,
		"photoshopUrl": false,
		"adobeXDUrl": false,
		"sketchUrl": true,
		"abstractUrl": false
	},
	{
		"name": "Pagination",
		"parent": "Indicators",
		"githubUrl": "indicators/pagination",
		"description": null,
		"react": {
			"exists": false,
			"status": -1,
			"globalUse": false,
			"support": [
				{
					"region": "SV",
					"status": -1
				}
			]
		},
		"angular": {
			"exists": false,
			"status": -1,
			"globalUse": false,
			"support": [
				{
					"region": "NL",
					"status": -1
				}
			]
		},
		"html": {
			"exists": true,
			"status": 0,
			"globalUse": true,
			"support": []
		},
		"figmaUrl": false,
		"photoshopUrl": false,
		"adobeXDUrl": false,
		"sketchUrl": true,
		"abstractUrl": false
	},
	{
		"name": "Preloader",
		"parent": "Indicators",
		"githubUrl": "indicators/preloader",
		"description": null,
		"react": {
			"exists": false,
			"status": -1,
			"globalUse": false,
			"support": [
				{
					"region": "SV",
					"status": -1
				}
			]
		},
		"angular": {
			"exists": false,
			"status": -1,
			"globalUse": false,
			"support": [
				{
					"region": "NL",
					"status": -1
				}
			]
		},
		"html": {
			"exists": true,
			"status": 0,
			"globalUse": true,
			"support": []
		},
		"figmaUrl": false,
		"photoshopUrl": false,
		"adobeXDUrl": false,
		"sketchUrl": true,
		"abstractUrl": false
	},
	{
		"name": "Progress Indicator",
		"parent": "Indicators",
		"githubUrl": "indicators/progress-indicator",
		"description": null,
		"react": {
			"exists": false,
			"status": -1,
			"globalUse": false,
			"support": [
				{
					"region": "SV",
					"status": -1
				}
			]
		},
		"angular": {
			"exists": false,
			"status": -1,
			"globalUse": false,
			"support": [
				{
					"region": "NL",
					"status": -1
				}
			]
		},
		"html": {
			"exists": true,
			"status": 0,
			"globalUse": true,
			"support": []
		},
		"figmaUrl": false,
		"photoshopUrl": false,
		"adobeXDUrl": false,
		"sketchUrl": true,
		"abstractUrl": false
	},
	{
		"name": "Spinner",
		"parent": "Indicators",
		"githubUrl": "indicators/spinner",
		"description": null,
		"react": {
			"exists": false,
			"status": -1,
			"globalUse": false,
			"support": [
				{
					"region": "SV",
					"status": -1
				}
			]
		},
		"angular": {
			"exists": false,
			"status": -1,
			"globalUse": false,
			"support": [
				{
					"region": "NL",
					"status": -1
				}
			]
		},
		"html": {
			"exists": true,
			"status": 0,
			"globalUse": true,
			"support": []
		},
		"figmaUrl": false,
		"photoshopUrl": false,
		"adobeXDUrl": false,
		"sketchUrl": true,
		"abstractUrl": false
	}
]
